# Blender 4.1.1
# www.blender.org
mtllib gun.mtl
o Cube.007_Cube.012
v -0.411832 0.086130 0.026006
v -0.411832 0.135491 0.026006
v -0.173174 0.062417 0.018067
v -0.173174 0.135491 0.026006
v -0.347503 0.083990 0.026006
v -0.347503 0.135491 0.026006
v -0.323904 0.065724 0.018067
v -0.323904 0.135491 0.026006
v -0.173174 0.052466 0.026006
v 0.061704 0.078001 0.026006
v 0.039620 0.135491 0.026006
v -0.161672 -0.024025 0.026006
v 0.187770 -0.024025 0.026006
v -0.162822 0.014221 0.026006
v 0.166146 0.040446 0.026006
v -0.114432 0.060327 0.026006
v -0.113145 0.135491 0.026006
v -0.112595 -0.033670 0.026006
v -0.113404 0.018598 0.026006
v -0.006619 0.071361 0.026006
v 0.008169 -0.022505 0.026006
v 0.000906 0.026279 0.026006
v -0.013226 0.135491 0.026006
v -0.059408 0.135491 0.026006
v -0.053386 0.066206 0.026006
v -0.048711 -0.016709 0.026006
v -0.049100 0.022678 0.026006
v -0.092831 0.135491 0.026006
v -0.091827 0.062274 0.026006
v -0.089469 -0.033296 0.026006
v -0.090746 0.019884 0.026006
v 0.209454 -0.063012 0.026006
v 0.026006 -0.070240 0.026006
v 0.222777 -0.086253 0.026006
v 0.040502 -0.084733 0.026006
v 0.015125 0.073034 0.026006
v 0.030135 -0.023265 0.026006
v 0.023681 0.027296 0.026006
v 0.003955 0.135491 0.026006
v 0.042952 -0.067819 0.026006
v 0.200998 -0.047892 0.026006
v 0.021081 -0.046372 0.026006
v 0.039097 -0.047132 0.026006
v 0.231887 -0.111783 0.025139
v 0.078163 -0.094553 0.025139
v 0.242841 -0.156569 0.025141
v 0.103770 -0.170207 0.025141
v 0.242831 -0.250020 0.026006
v 0.257926 -0.231400 0.025560
v 0.117515 -0.230113 0.025480
v 0.141938 -0.248921 0.026006
v -0.123217 0.020303 0.043649
v -0.123217 0.119332 0.043649
v -0.005547 0.020303 0.043649
v -0.005547 0.119332 0.043649
v -0.123217 0.069818 0.057616
v -0.005547 0.069818 0.057616
v -0.112595 -0.028919 0.006931
v -0.089469 -0.028545 0.006931
v -0.064751 -0.111774 0.006931
v -0.059721 -0.099198 0.006931
v -0.090936 -0.071790 0.006931
v -0.102718 -0.076532 0.006931
v 0.032363 -0.089944 0.006931
v 0.023005 -0.078620 0.006931
v -0.013944 -0.104936 0.006931
v -0.012743 -0.116886 0.006931
v 0.039983 -0.061113 0.006931
v 0.054479 -0.075606 0.006931
v 0.001992 -0.037353 0.002659
v -0.033936 -0.026115 0.002659
v -0.023188 -0.065545 0.002659
v -0.015815 -0.042510 0.002659
v -0.030684 -0.060308 0.002659
v -0.029384 -0.040266 0.002659
v -0.035383 -0.081888 0.002659
v 0.018978 -0.019101 0.002659
v -0.035716 -0.012516 0.002659
v -0.052592 -0.090990 0.002659
v -0.057081 -0.081449 0.002659
v -0.041376 -0.074500 0.002659
v -0.407899 0.131429 0.005972
v -0.405607 0.150817 0.005972
v -0.363679 0.131429 0.005972
v -0.363679 0.138019 0.005972
v -0.388463 0.131429 0.005972
v -0.389227 0.150244 0.005972
v -0.411832 0.086130 -0.026006
v -0.411832 0.135491 -0.026006
v -0.173174 0.062417 -0.018067
v -0.173174 0.135491 -0.026006
v -0.347503 0.083990 -0.026006
v -0.347503 0.135491 -0.026006
v -0.323904 0.065724 -0.018067
v -0.323904 0.135491 -0.026006
v -0.173174 0.052466 -0.026006
v 0.061704 0.078001 -0.026006
v 0.039620 0.135491 -0.026006
v -0.161672 -0.024025 -0.026006
v 0.187770 -0.024025 -0.026006
v -0.162822 0.014221 -0.026006
v 0.166146 0.040446 -0.026006
v -0.114432 0.060327 -0.026006
v -0.113145 0.135491 -0.026006
v -0.112595 -0.033670 -0.026006
v -0.113404 0.018598 -0.026006
v -0.006619 0.071361 -0.026006
v 0.008169 -0.022505 -0.026006
v 0.000906 0.026279 -0.026006
v -0.013226 0.135491 -0.026006
v -0.059408 0.135491 -0.026006
v -0.053386 0.066206 -0.026006
v -0.048711 -0.016709 -0.026006
v -0.049100 0.022678 -0.026006
v -0.092831 0.135491 -0.026006
v -0.091827 0.062274 -0.026006
v -0.089469 -0.033296 -0.026006
v -0.090746 0.019884 -0.026006
v 0.209454 -0.063012 -0.026006
v 0.026006 -0.070240 -0.026006
v 0.222777 -0.086253 -0.026006
v 0.040502 -0.084733 -0.026006
v 0.015125 0.073034 -0.026006
v 0.030135 -0.023265 -0.026006
v 0.023681 0.027296 -0.026006
v 0.003955 0.135491 -0.026006
v 0.042952 -0.067819 -0.026006
v 0.200998 -0.047892 -0.026006
v 0.021081 -0.046372 -0.026006
v 0.039097 -0.047132 -0.026006
v 0.231887 -0.111783 -0.025139
v 0.078163 -0.094553 -0.025139
v 0.242841 -0.156569 -0.025141
v 0.103770 -0.170207 -0.025141
v 0.242831 -0.250020 -0.026006
v 0.257926 -0.231400 -0.025560
v 0.117515 -0.230113 -0.025480
v 0.141938 -0.248921 -0.026006
v -0.411832 0.079410 -0.000000
v -0.411832 0.143569 -0.000000
v -0.176544 0.055696 -0.000000
v -0.173174 0.143569 -0.000000
v -0.347503 0.143569 -0.000000
v -0.347503 0.077270 -0.000000
v -0.323904 0.143569 -0.000000
v -0.323904 0.059003 -0.000000
v -0.176544 0.052466 -0.000000
v 0.067433 0.078001 -0.000000
v 0.045348 0.143569 -0.000000
v -0.165041 -0.026728 0.000000
v 0.193499 -0.024025 0.000000
v 0.171874 0.040446 -0.000000
v -0.166191 0.014221 -0.000000
v -0.112595 -0.036373 0.000000
v -0.113145 0.143569 -0.000000
v 0.008169 -0.025208 0.000000
v -0.013226 0.143569 -0.000000
v -0.059408 0.143569 -0.000000
v -0.048711 -0.019412 0.000000
v -0.089469 -0.035999 0.000000
v -0.092831 0.143569 -0.000000
v 0.215183 -0.063012 0.000000
v 0.026006 -0.070240 0.000000
v 0.228506 -0.086253 0.000000
v 0.040502 -0.084733 0.000000
v 0.002365 0.143569 -0.000000
v 0.021081 -0.046372 0.000000
v 0.206726 -0.047892 0.000000
v 0.075048 -0.094553 0.000000
v 0.237616 -0.111783 0.000000
v 0.100654 -0.170207 0.000000
v 0.248570 -0.156569 0.000000
v 0.248560 -0.253036 0.000000
v 0.263655 -0.231400 0.000000
v 0.138822 -0.251936 0.000000
v 0.114400 -0.230113 0.000000
v -0.123217 0.020303 -0.043649
v -0.123217 0.119332 -0.043649
v -0.005547 0.020303 -0.043649
v -0.005547 0.119332 -0.043649
v -0.123217 0.069818 -0.057616
v -0.005547 0.069818 -0.057616
v -0.112595 -0.028919 -0.006931
v -0.089469 -0.028545 -0.006931
v -0.064751 -0.111774 -0.006931
v -0.059721 -0.099198 -0.006931
v -0.090936 -0.071790 -0.006931
v -0.102718 -0.076532 -0.006931
v 0.032363 -0.089944 -0.006931
v 0.023005 -0.078620 -0.006931
v -0.013944 -0.104936 -0.006931
v -0.012743 -0.116886 -0.006931
v 0.039983 -0.061113 -0.006931
v 0.054479 -0.075606 -0.006931
v -0.114457 -0.028919 0.000000
v -0.064751 -0.113682 0.000000
v -0.104580 -0.078440 0.000000
v 0.032363 -0.091851 0.000000
v -0.012743 -0.118794 0.000000
v 0.054479 -0.078232 0.000000
v -0.087750 -0.028545 0.000000
v -0.059721 -0.096855 0.000000
v -0.089217 -0.069448 0.000000
v 0.023005 -0.076277 0.000000
v -0.013944 -0.102594 0.000000
v 0.036167 -0.061113 0.000000
v -0.407899 0.131429 -0.000000
v 0.001992 -0.037353 -0.002659
v -0.033936 -0.026115 -0.002659
v -0.023188 -0.065545 -0.002659
v -0.015815 -0.042510 -0.002659
v -0.030684 -0.060308 -0.002659
v -0.029384 -0.040266 -0.002659
v -0.035383 -0.081888 -0.002659
v 0.018978 -0.019101 -0.002659
v -0.035716 -0.012516 -0.002659
v -0.052592 -0.090990 -0.002659
v -0.057081 -0.081449 -0.002659
v -0.041376 -0.074500 -0.002659
v -0.123217 0.007244 -0.000000
v -0.123217 0.132392 -0.000000
v -0.005547 0.007244 -0.000000
v -0.005547 0.132392 -0.000000
v -0.407899 0.131429 -0.005972
v -0.405607 0.150817 -0.005972
v -0.363679 0.131429 -0.005972
v -0.363679 0.138019 -0.005972
v -0.388463 0.131429 -0.005972
v -0.389227 0.150244 -0.005972
v -0.005547 0.069818 -0.000000
v -0.123217 0.069818 -0.000000
v 0.074371 0.058629 0.002220
v 0.084217 0.076838 0.002220
v 0.084868 0.045967 0.002220
v 0.103169 0.066515 0.002220
v 0.058884 0.107599 0.002220
v 0.042429 0.097162 0.002220
v 0.051817 0.124360 0.002220
v 0.025116 0.118047 0.002220
v 0.050411 0.087532 0.002220
v 0.063875 0.071291 0.002220
v 0.091139 0.102246 0.002220
v 0.107631 0.107704 0.002220
v 0.104526 0.118710 0.002220
v 0.077201 0.086838 0.002220
v 0.071113 0.099872 0.002220
v 0.086892 0.112864 0.002220
v 0.084217 0.076838 -0.004302
v 0.074371 0.058629 -0.004302
v 0.084868 0.045967 -0.004302
v 0.077201 0.086838 -0.004302
v 0.103169 0.066515 -0.004302
v 0.063875 0.071291 -0.004302
v 0.025116 0.118047 -0.004302
v 0.042429 0.097162 -0.004302
v 0.051817 0.124360 -0.004302
v 0.058884 0.107599 -0.004302
v 0.071113 0.099872 -0.004302
v 0.050411 0.087532 -0.004302
v 0.086892 0.112864 -0.004302
v 0.091139 0.102246 -0.004302
v 0.107631 0.107704 -0.004302
v 0.104526 0.118710 -0.004302
vn -0.0000 0.5930 0.8052
vn -0.5993 -0.4836 0.6380
vn -0.0521 -0.5227 0.8509
vn -0.7641 -0.6451 -0.0000
vn -0.1993 -0.6742 0.7111
vn -0.3140 -0.9494 -0.0000
vn -0.6460 0.7633 -0.0000
vn -0.0000 1.0000 -0.0000
vn 0.0216 0.5639 0.8256
vn -0.6672 -0.7449 -0.0000
vn -0.0224 0.5711 0.8206
vn -0.8504 -0.2611 0.4568
vn -0.3367 -0.9416 -0.0000
vn -0.0000 -0.0000 1.0000
vn 0.3973 0.5576 0.7288
vn 0.6714 0.7411 -0.0000
vn 0.3788 0.3583 0.8533
vn 0.5829 0.8126 -0.0000
vn 0.8737 0.4866 -0.0000
vn 0.5534 0.3131 0.7719
vn 0.8700 0.4931 -0.0000
vn 0.7417 0.6708 -0.0000
vn 0.5596 0.2432 0.7923
vn 0.9131 0.4077 -0.0000
vn -0.5767 -0.4951 0.6499
vn -0.0620 -0.6902 0.7209
vn -0.6244 -0.0917 0.7757
vn 0.5031 0.5384 0.6761
vn 0.1436 -0.6949 0.7047
vn -0.2851 -0.4431 0.8499
vn 0.0845 -0.5983 0.7968
vn -0.6705 -0.3615 0.6479
vn 0.5924 0.2605 0.7624
vn 0.9111 0.4122 -0.0000
vn -0.3787 -0.6540 0.6549
vn 0.5560 0.3095 0.7714
vn -0.6228 -0.2360 0.7459
vn -0.6286 -0.1745 0.7579
vn -0.2259 -0.6770 0.7004
vn 0.6887 -0.1603 0.7071
vn 0.9761 0.2175 -0.0000
vn 0.9811 -0.1936 -0.0000
vn -0.3611 -0.4209 0.8321
vn 0.6163 0.1775 0.7673
vn 0.9585 0.2852 -0.0000
vn 0.6156 0.1400 0.7756
vn -0.9934 -0.1143 -0.0000
vn -0.6951 -0.0725 0.7153
vn -0.3573 -0.9340 -0.0000
vn -0.6260 -0.3873 0.6769
vn -0.8670 -0.4984 -0.0000
vn 0.2801 -0.6583 0.6987
vn 0.4780 -0.8783 -0.0000
vn 0.1976 -0.9803 -0.0000
vn -0.9619 -0.2735 -0.0000
vn -0.6636 -0.7481 -0.0000
vn -0.5586 -0.8295 -0.0000
vn -0.8802 -0.4746 -0.0000
vn -0.9303 -0.3669 -0.0000
vn 0.1443 -0.9895 -0.0000
vn -0.0864 -0.9963 -0.0000
vn -0.9890 -0.1477 -0.0000
vn 0.6131 0.5542 0.5630
vn -0.6508 -0.0000 0.7592
vn 0.6508 -0.0000 0.7592
vn 0.6479 -0.7617 -0.0000
vn -0.6131 -0.5542 0.5630
vn -0.6479 -0.7617 -0.0000
vn -0.6479 0.7617 -0.0000
vn 0.6479 0.7617 -0.0000
vn 0.6131 -0.5542 0.5630
vn 0.4051 0.1922 0.8939
vn 0.4358 0.9000 -0.0000
vn 0.9451 0.3268 -0.0000
vn -0.2642 0.9645 -0.0000
vn -0.3833 0.4406 0.8118
vn -0.6847 0.7288 -0.0000
vn -0.2867 -0.6176 0.7324
vn 0.1986 0.4699 0.8601
vn -0.6446 -0.1337 0.7528
vn 0.6278 -0.0224 0.7781
vn 0.9994 -0.0358 -0.0000
vn -0.1098 0.4677 0.8770
vn 0.3243 -0.5315 0.7825
vn 0.1558 -0.6573 0.7374
vn -0.3551 0.3444 0.8691
vn 0.3231 -0.4983 0.8046
vn -0.7245 0.6893 -0.0000
vn 0.5409 -0.8411 -0.0000
vn 0.5181 -0.8553 -0.0000
vn -0.3818 -0.9243 -0.0000
vn -0.9793 -0.2024 -0.0000
vn -0.5652 -0.2999 0.7685
vn -0.8633 -0.5047 -0.0000
vn -0.5949 0.4767 0.6472
vn 1.0000 -0.0000 -0.0000
vn -1.0000 -0.0000 -0.0000
vn -0.6131 0.5542 0.5630
vn 0.2652 0.5542 0.7890
vn 0.1782 0.7263 0.6639
vn -0.5295 0.6173 0.5818
vn -0.7290 0.0862 0.6791
vn -0.5993 -0.4836 -0.6380
vn -0.0000 0.5930 -0.8052
vn -0.0521 -0.5228 -0.8509
vn -0.1993 -0.6742 -0.7111
vn 0.0216 0.5639 -0.8256
vn -0.0224 0.5711 -0.8206
vn -0.8504 -0.2611 -0.4568
vn 0.3973 0.5576 -0.7288
vn -0.0000 -0.0000 -1.0000
vn 0.5534 0.3131 -0.7719
vn 0.5560 0.3095 -0.7714
vn 0.5596 0.2432 -0.7923
vn 0.5031 0.5384 -0.6761
vn -0.5767 -0.4951 -0.6499
vn -0.6244 -0.0917 -0.7757
vn -0.6951 -0.0725 -0.7153
vn 0.3788 0.3583 -0.8533
vn 0.1436 -0.6949 -0.7047
vn -0.2851 -0.4431 -0.8499
vn 0.0845 -0.5983 -0.7968
vn -0.6705 -0.3615 -0.6479
vn -0.6228 -0.2360 -0.7459
vn 0.5924 0.2605 -0.7624
vn -0.3787 -0.6540 -0.6549
vn 0.6887 -0.1603 -0.7071
vn -0.2259 -0.6770 -0.7004
vn -0.6286 -0.1745 -0.7579
vn 0.6156 0.1400 -0.7756
vn -0.3611 -0.4209 -0.8321
vn 0.6163 0.1775 -0.7673
vn -0.6260 -0.3873 -0.6769
vn 0.2801 -0.6583 -0.6987
vn -0.0620 -0.6902 -0.7209
vn -0.5065 -0.8622 -0.0000
vn -0.7606 -0.6492 -0.0000
vn -0.6508 -0.0000 -0.7592
vn 0.6131 0.5542 -0.5630
vn 0.6508 -0.0000 -0.7592
vn -0.6131 -0.5542 -0.5630
vn 0.6131 -0.5542 -0.5630
vn 0.4051 0.1922 -0.8939
vn -0.3833 0.4406 -0.8118
vn -0.1098 0.4677 -0.8770
vn -0.2867 -0.6176 -0.7324
vn -0.5652 -0.2999 -0.7685
vn -0.6446 -0.1337 -0.7528
vn 0.6278 -0.0224 -0.7781
vn 0.3243 -0.5315 -0.7825
vn 0.1558 -0.6573 -0.7374
vn 0.1986 0.4699 -0.8601
vn -0.3551 0.3444 -0.8691
vn 0.2080 -0.9781 -0.0000
vn -0.5949 0.4767 -0.6472
vn -0.6131 0.5542 -0.5630
vn 0.2652 0.5542 -0.7890
vn -0.5296 0.6173 -0.5818
vn -0.7290 0.0862 -0.6791
vn 0.4311 0.4828 0.7622
vn 0.4790 -0.0296 0.8773
vn 0.8120 0.1413 0.5663
vn 0.3666 0.7221 0.5867
vn 0.4763 0.4037 0.7811
vn -0.0314 0.5003 0.8653
vn 0.3488 -0.5353 0.7693
vn -0.3597 0.6514 0.6681
vn 0.3835 0.7227 0.5750
vn 0.4311 0.4828 -0.7622
vn 0.8120 0.1412 -0.5663
vn 0.5540 -0.4934 -0.6706
vn 0.3666 0.7221 -0.5867
vn 0.4763 0.4037 -0.7811
vn -0.0314 0.5003 -0.8653
vn 0.3488 -0.5353 -0.7693
vn 0.4790 -0.0296 -0.8773
vn 0.3835 0.7227 -0.5750
vn -0.3596 0.6514 -0.6681
vn -0.1879 0.7946 0.5774
vn 0.7197 -0.3821 0.5797
vn 0.7197 -0.3821 -0.5797
vn 0.5540 -0.4934 0.6706
vn -0.9931 0.1174 -0.0000
vn 0.1782 0.7263 -0.6639
vn 0.6586 -0.3390 -0.6718
vn 0.3892 -0.4002 0.8297
vn 0.6586 -0.3390 0.6718
vn 0.3892 -0.4002 -0.8297
vn 0.3975 -0.6459 0.6518
vn 0.3975 -0.6459 -0.6518
vn 0.6279 -0.5844 0.5140
vn 0.4882 -0.5701 -0.6608
vn 0.4882 -0.5701 0.6608
vn -0.7589 -0.0993 -0.6436
vn -0.7087 -0.1590 0.6873
vn -0.7589 -0.0993 0.6436
vn -0.7087 -0.1590 -0.6873
vn -0.6545 -0.0811 0.7517
vn -0.5895 0.2187 0.7776
vn -0.5895 0.2187 -0.7776
vn -0.3979 0.5013 0.7684
vn -0.6545 -0.0811 -0.7517
vn -0.7657 0.2858 -0.5762
vn -0.2591 -0.7761 0.5749
vn -0.7657 0.2858 0.5762
vn -0.2592 -0.7761 -0.5749
vn -0.3979 0.5013 -0.7684
vn 0.3231 -0.4983 -0.8046
vn -0.1879 0.7946 -0.5774
vn 0.6280 -0.5844 -0.5140
vt 0.093132 0.891278
vt 0.014252 0.807110
vt 0.100041 0.797511
vt 0.364573 0.726274
vt 0.130823 0.745304
vt 0.130823 0.730374
vt 0.013624 0.910483
vt 0.093132 0.909223
vt 0.123913 0.891278
vt 0.123913 0.909223
vt 0.014252 0.792180
vt 0.365737 0.885755
vt 0.368968 0.741204
vt 0.365737 0.903700
vt 0.100041 0.782581
vt 0.652795 0.763313
vt 0.668291 0.896674
vt 0.636212 0.887046
vt 0.721020 0.777424
vt 0.713548 0.777424
vt 0.636151 0.923080
vt 0.675763 0.914620
vt 0.908242 0.496535
vt 0.911800 0.462946
vt 0.919272 0.462946
vt 0.857244 0.693996
vt 0.883517 0.549555
vt 0.890989 0.549555
vt 0.455239 0.645462
vt 0.383970 0.549177
vt 0.454301 0.539349
vt 0.453899 0.738161
vt 0.382470 0.634138
vt 0.849772 0.693996
vt 0.484792 0.648319
vt 0.483383 0.742487
vt 0.488025 0.551166
vt 0.455578 0.923080
vt 0.458569 0.883600
vt 0.663954 0.664783
vt 0.640556 0.552931
vt 0.672372 0.552464
vt 0.634249 0.662525
vt 0.553567 0.887046
vt 0.615817 0.923080
vt 0.555581 0.923080
vt 0.563435 0.748145
vt 0.613803 0.887046
vt 0.485064 0.883600
vt 0.482073 0.923080
vt 0.568346 0.567029
vt 0.624434 0.759596
vt 0.569026 0.654525
vt 0.684061 0.499444
vt 0.663821 0.446890
vt 0.689090 0.453489
vt 0.936300 0.410098
vt 0.943772 0.410098
vt 0.685894 0.415915
vt 0.900770 0.496535
vt 0.657398 0.499911
vt 0.777911 0.224817
vt 0.834026 0.038969
vt 0.992294 0.083278
vt 0.977855 0.257554
vt 0.999766 0.083278
vt 0.749261 0.385555
vt 0.948182 0.353382
vt 0.955654 0.353382
vt 0.970383 0.257554
vt 0.364573 0.719099
vt 0.368968 0.719099
vt 0.829962 0.032270
vt 0.802171 0.080749
vt 0.798108 0.080749
vt 0.972606 0.041914
vt 0.980078 0.035215
vt 0.488025 0.545162
vt 0.773848 0.224817
vt 0.745198 0.385555
vt 0.640556 0.546926
vt 0.568346 0.561024
vt 0.454301 0.533344
vt 0.378075 0.634138
vt 0.613720 0.808891
vt 0.440646 0.754316
vt 0.613720 0.754316
vt 0.613720 0.649246
vt 0.440646 0.699742
vt 0.440646 0.649246
vt 0.440646 0.859387
vt 0.613720 0.859387
vt 0.613720 0.699742
vt 0.476962 0.427583
vt 0.531947 0.366684
vt 0.478399 0.431249
vt 0.602471 0.350988
vt 0.647411 0.392477
vt 0.647411 0.396143
vt 0.530511 0.348523
vt 0.531947 0.363017
vt 0.461623 0.495291
vt 0.475220 0.494655
vt 0.476658 0.494655
vt 0.602471 0.347322
vt 0.654445 0.377501
vt 0.603277 0.330450
vt 0.660815 0.422623
vt 0.672935 0.399941
vt 0.657624 0.422623
vt 0.672935 0.395832
vt 0.654445 0.374515
vt 0.530511 0.345537
vt 0.460065 0.495291
vt 0.470475 0.421382
vt 0.468917 0.418396
vt 0.121459 0.281800
vt 0.075377 0.127519
vt 0.121459 0.146008
vt 0.615578 0.166667
vt 0.682490 0.063517
vt 0.705106 0.170701
vt 0.684316 0.275930
vt 0.616732 0.300885
vt 0.347019 0.065475
vt 0.403894 0.160023
vt 0.403894 0.040537
vt 0.347019 0.254571
vt 0.321110 0.160023
vt 0.043965 0.901269
vt 0.075013 0.915231
vt 0.043008 0.941127
vt 0.021697 0.941120
vt 0.019617 0.901269
vt 0.379576 0.543172
vt 0.603277 0.327464
vt 0.546840 0.057404
vt 0.614424 0.032448
vt 0.548666 0.269816
vt 0.075013 0.901269
vt 0.706336 0.779476
vt 0.736175 0.783431
vt 0.730042 0.801624
vt 0.723030 0.758279
vt 0.759092 0.764697
vt 0.687161 0.868310
vt 0.672230 0.822782
vt 0.698400 0.840253
vt 0.684925 0.806662
vt 0.720361 0.823442
vt 0.749697 0.831293
vt 0.742941 0.849067
vt 0.769396 0.864540
vt 0.739723 0.737083
vt 0.644697 0.857742
vt 0.773745 0.848308
vt 0.000000 0.000000
vt 0.522531 0.658250
vt 0.548187 0.658250
vt 0.567853 0.658250
vt 0.594302 0.658250
vt 0.500899 0.658250
vt 0.370306 0.658250
vt 0.384855 0.658250
vt 0.400624 0.658250
vt 0.407526 0.702933
vt 0.407092 0.727531
vt 0.394652 0.719909
vt 0.421930 0.658250
vt 0.440778 0.658250
vt 0.464043 0.658250
vt 0.475228 0.658250
vt 0.381176 0.728097
vt 0.408838 0.658679
vt 0.408805 0.684128
vt 0.398614 0.663214
vt 0.417792 0.744031
vt 0.370306 0.737768
vt 0.417174 0.703938
vt 0.418741 0.682363
vt 0.013624 0.892538
vt 0.440646 0.808891
vt 0.075377 0.304023
vt 0.403894 0.279509
vt 0.526050 0.162632
vt 0.418741 0.770463
s 1
usemtl Gun
f 6 1 5
f 141 7 146
f 140 6 143
f 143 8 145
f 139 5 1
f 8 5 7
f 4 7 3
f 145 4 142
f 144 7 5
f 36 11 39
f 148 11 10
f 166 11 149
f 168 32 162
f 152 13 151
f 19 12 18
f 16 14 19
f 148 15 152
f 16 31 29
f 19 30 31
f 4 155 142
f 4 16 17
f 38 21 37
f 36 22 38
f 24 157 158
f 25 23 24
f 28 25 24
f 28 158 161
f 22 26 21
f 20 27 22
f 17 161 155
f 17 29 28
f 31 26 27
f 29 27 25
f 43 33 40
f 162 34 164
f 40 33 35
f 32 35 34
f 41 40 32
f 10 38 15
f 15 37 13
f 23 166 157
f 20 39 23
f 13 43 41
f 37 42 43
f 151 41 168
f 47 51 49
f 172 49 174
f 34 45 44
f 164 44 170
f 44 47 46
f 170 46 172
f 147 3 141
f 3 9 4
f 175 50 176
f 175 48 51
f 173 49 48
f 18 160 30
f 45 171 47
f 35 169 45
f 47 176 50
f 156 42 21
f 163 35 33
f 167 33 42
f 30 159 26
f 159 21 26
f 12 154 18
f 9 153 14
f 153 12 14
f 55 56 57
f 222 52 220
f 221 55 223
f 57 52 54
f 62 202 203
f 205 65 204
f 62 60 61
f 58 62 59
f 59 203 201
f 66 64 65
f 61 67 66
f 61 205 202
f 68 64 69
f 206 65 68
f 200 64 198
f 196 67 60
f 67 198 64
f 195 63 58
f 197 60 63
f 2 139 1
f 230 55 57
f 230 54 222
f 52 231 220
f 53 231 56
f 86 85 87
f 86 83 82
f 88 93 92
f 94 141 146
f 93 140 143
f 95 143 145
f 139 92 144
f 92 95 94
f 94 91 90
f 91 145 142
f 144 94 146
f 98 123 126
f 148 98 149
f 166 98 126
f 168 119 128
f 152 100 102
f 106 99 101
f 103 101 96
f 148 102 97
f 118 103 116
f 117 106 118
f 155 91 142
f 91 103 96
f 125 108 109
f 123 109 107
f 157 111 158
f 110 112 111
f 115 112 116
f 158 115 161
f 109 113 114
f 107 114 112
f 161 104 155
f 104 116 103
f 113 118 114
f 114 116 112
f 130 120 129
f 162 121 119
f 127 122 120
f 119 122 127
f 128 127 130
f 97 125 123
f 102 124 125
f 166 110 157
f 126 107 110
f 100 130 124
f 124 129 108
f 151 128 100
f 136 138 134
f 172 136 133
f 121 132 122
f 164 131 121
f 131 134 132
f 170 133 131
f 90 147 141
f 90 91 96
f 175 137 138
f 135 175 138
f 136 173 135
f 105 160 154
f 132 171 169
f 122 169 165
f 134 176 171
f 129 156 108
f 122 163 120
f 120 167 129
f 117 159 160
f 108 159 113
f 99 154 150
f 96 153 147
f 99 153 101
f 181 180 182
f 177 222 220
f 180 221 223
f 177 182 179
f 202 187 203
f 205 190 191
f 187 185 188
f 187 183 184
f 203 184 201
f 191 189 192
f 186 192 185
f 205 186 202
f 193 189 190
f 206 190 204
f 189 200 198
f 192 196 185
f 192 198 199
f 188 195 183
f 185 197 188
f 139 89 88
f 230 180 223
f 179 230 222
f 177 231 181
f 231 178 181
f 228 227 226
f 225 228 224
f 241 233 245
f 232 235 233
f 238 237 236
f 236 240 246
f 246 242 247
f 240 245 246
f 242 244 247
f 253 248 249
f 249 252 250
f 255 256 257
f 259 257 258
f 258 261 251
f 251 259 258
f 263 261 260
f 260 246 247
f 256 239 238
f 251 242 245
f 258 236 246
f 261 243 242
f 248 245 233
f 257 238 236
f 252 233 235
f 263 247 244
f 262 244 243
f 250 235 234
f 207 83 224
f 227 87 85
f 229 83 87
f 6 2 1
f 141 3 7
f 140 2 6
f 143 6 8
f 139 144 5
f 8 6 5
f 4 8 7
f 145 8 4
f 144 146 7
f 36 10 11
f 148 149 11
f 166 39 11
f 168 41 32
f 152 15 13
f 19 14 12
f 16 9 14
f 148 10 15
f 16 19 31
f 19 18 30
f 4 17 155
f 4 9 16
f 38 22 21
f 36 20 22
f 24 23 157
f 25 20 23
f 28 29 25
f 28 24 158
f 22 27 26
f 20 25 27
f 17 28 161
f 17 16 29
f 31 30 26
f 29 31 27
f 43 42 33
f 162 32 34
f 32 40 35
f 41 43 40
f 10 36 38
f 15 38 37
f 23 39 166
f 20 36 39
f 13 37 43
f 37 21 42
f 151 13 41
f 49 46 47
f 47 50 51
f 51 48 49
f 172 46 49
f 34 35 45
f 164 34 44
f 44 45 47
f 170 44 46
f 147 9 3
f 175 51 50
f 175 173 48
f 173 174 49
f 18 154 160
f 45 169 171
f 35 165 169
f 47 171 176
f 156 167 42
f 163 165 35
f 167 163 33
f 30 160 159
f 159 156 21
f 12 150 154
f 9 147 153
f 153 150 12
f 55 53 56
f 222 54 52
f 221 53 55
f 57 56 52
f 62 61 202
f 205 66 65
f 62 63 60
f 58 63 62
f 59 62 203
f 66 67 64
f 61 60 67
f 61 66 205
f 68 65 64
f 206 204 65
f 200 69 64
f 196 199 67
f 67 199 198
f 195 197 63
f 197 196 60
f 2 140 139
f 230 223 55
f 230 57 54
f 52 56 231
f 53 221 231
f 86 84 85
f 86 87 83
f 88 89 93
f 94 90 141
f 93 89 140
f 95 93 143
f 139 88 92
f 92 93 95
f 94 95 91
f 91 95 145
f 144 92 94
f 98 97 123
f 148 97 98
f 166 149 98
f 168 162 119
f 152 151 100
f 106 105 99
f 103 106 101
f 148 152 102
f 118 106 103
f 117 105 106
f 155 104 91
f 91 104 103
f 125 124 108
f 123 125 109
f 157 110 111
f 110 107 112
f 115 111 112
f 158 111 115
f 109 108 113
f 107 109 114
f 161 115 104
f 104 115 116
f 113 117 118
f 114 118 116
f 130 127 120
f 162 164 121
f 119 121 122
f 128 119 127
f 97 102 125
f 102 100 124
f 166 126 110
f 126 123 107
f 100 128 130
f 124 130 129
f 151 168 128
f 134 133 136
f 136 135 138
f 138 137 134
f 172 174 136
f 121 131 132
f 164 170 131
f 131 133 134
f 170 172 133
f 90 96 147
f 175 176 137
f 135 173 175
f 136 174 173
f 105 117 160
f 132 134 171
f 122 132 169
f 134 137 176
f 129 167 156
f 122 165 163
f 120 163 167
f 117 113 159
f 108 156 159
f 99 105 154
f 96 101 153
f 99 150 153
f 181 178 180
f 177 179 222
f 180 178 221
f 177 181 182
f 202 186 187
f 205 204 190
f 187 186 185
f 187 188 183
f 203 187 184
f 191 190 189
f 186 191 192
f 205 191 186
f 193 194 189
f 206 193 190
f 189 194 200
f 192 199 196
f 192 189 198
f 188 197 195
f 185 196 197
f 139 140 89
f 230 182 180
f 179 182 230
f 177 220 231
f 231 221 178
f 228 229 227
f 225 229 228
f 241 232 233
f 232 234 235
f 238 239 237
f 236 237 240
f 246 245 242
f 240 241 245
f 242 243 244
f 253 251 248
f 249 248 252
f 255 254 256
f 259 255 257
f 258 260 261
f 251 253 259
f 263 262 261
f 260 258 246
f 256 254 239
f 251 261 242
f 258 257 236
f 261 262 243
f 248 251 245
f 257 256 238
f 252 248 233
f 263 260 247
f 262 263 244
f 250 252 235
f 207 82 83
f 83 225 224
f 227 229 87
f 229 225 83
usemtl Gun_NONE
f 210 73 72
f 211 70 73
f 208 77 70
f 214 72 76
f 216 71 78
f 209 75 71
f 74 73 75
f 212 81 74
f 213 74 75
f 218 79 80
f 217 76 79
f 73 71 75
f 79 81 80
f 70 78 71
f 81 72 74
f 212 211 210
f 209 211 213
f 219 217 218
f 216 208 209
f 219 210 214
f 219 80 81
f 210 211 73
f 211 208 70
f 208 215 77
f 214 210 72
f 216 209 71
f 209 213 75
f 74 72 73
f 212 219 81
f 213 212 74
f 218 217 79
f 217 214 76
f 73 70 71
f 79 76 81
f 70 77 78
f 81 76 72
f 212 213 211
f 209 208 211
f 219 214 217
f 216 215 208
f 219 212 210
f 219 218 80
